0.000766667,26.69681,23.75
,,
1.00105,25.77136,23.5625
,,
2.0013,25.64742,23.5
,,
3.00155,25.44757,23.5
,,
4.0018,25.77136,23.5625
,,
5.00205,25.44757,23.5625
,,
6.0023,25.44757,23.5
,,
7.00255,25.44757,23.5
,,
8.0028,25.12379,23.1875
,,
9.00305,25.44757,23.25
,,
10.0033,25.77136,23.4375
,,
11.00355,25.44757,23.5625
,,
12.0038,25.44757,23.5
,,
13.00405,25.32342,23.4375
,,
14.0043,24.47622,23.3125
,,
15.00455,25.12379,23.0625
,,
16.0048,24.15244,22.75
,,
17.00505,24.8,22.8125
,,
18.0053,24.47622,22.625
,,
19.00555,24.47622,22.5
,,
20.0058,24.60082,22.5625
,,
21.00682,25.12379,22.5625
,,
22.00707,25.77136,22.6875
,,
23.00732,25.77136,22.5
,,
24.00757,26.09514,22.625
,,
25.00782,25.89509,22.5625
,,
26.00807,26.09514,22.3125
,,
27.00832,26.09514,22.125
,,
28.00857,26.41892,22.1875
,,
29.00882,26.61942,22.125
,,
30.00907,26.74271,21.75
,,
31.00932,26.41892,21.5
,,
32.00957,26.09514,21.1875
,,
33.00982,25.77136,21.625
,,
34.01007,26.41892,22.25
,,
35.01032,26.41892,22.75
,,
36.01057,26.09514,22.9375
,,
37.01082,26.74271,23.125
,,
38.01107,26.74271,23.3125
,,
39.01132,26.74271,23.375
,,
40.01157,26.74271,23.4375
,,
41.01259,26.61942,23.4375
,,
42.01283,27.06649,23.5625
,,
43.01309,26.54223,23.5625
,,
44.01333,26.74271,23.1875
,,
45.01359,27.06649,21.875
,,
46.01383,26.74271,21.25
,,
47.01408,25.89509,21.125
,,
48.01433,26.94341,22.0625
,,
49.01458,26.09514,22.6875
,,
50.01483,26.74271,23.1875
,,
51.01509,26.74271,23.5625
,,
52.01534,26.94341,23.5625
,,
53.01558,26.74271,23.625
,,
54.01584,26.8658,23.8125
,,
55.01608,27.06649,23.9375
,,
56.01634,27.71406,23.75
,,
57.01658,27.39028,23.6875
,,
58.01683,27.06649,23.9375
,,
59.01708,27.39028,24.0625
,,
60.0181,27.39028,24.125
,,
61.01835,27.71406,24.1875
,,
62.0186,27.39028,24.25
,,
63.01885,27.39028,24.25
,,
64.0191,27.71406,24.1875
,,
65.01935,27.71406,24.0625
,,
66.0196,27.83651,24
,,
67.01985,27.71406,23.9375
,,
68.02011,27.71406,24.0625
,,
69.02035,28.03785,24.1875
,,
70.0206,28.36163,24.1875
,,
71.02085,28.03785,24.4375
,,
72.0211,28.03785,24.5625
,,
73.02135,28.36163,24.625
,,
74.0216,28.03785,24.6875
,,
75.02185,28.03785,24.75
,,
76.02211,28.36163,24.75
,,
77.02235,28.36163,24.75
,,
78.0226,28.03785,24.8125
,,
79.02285,28.36163,24.8125
,,
80.02387,28.68542,24.8125
,,
81.02412,28.36163,24.8125
,,
82.02437,28.36163,24.8125
,,
83.02463,28.68542,24.8125
,,
84.02487,28.36163,24.9375
,,
85.02512,28.68542,24.9375
,,
86.02537,28.68542,25.0625
,,
87.02562,28.36163,25.0625
,,
88.02587,28.36163,25.0625
,,
89.02612,28.88741,25
,,
90.02637,28.68542,25
,,
91.02662,28.68542,24.9375
,,
92.02686,29.0092,24.9375
,,
93.02711,28.36163,24.8125
,,
94.02737,28.68542,24.9375
,,
95.02762,28.68542,24.8125
,,
96.02787,28.68542,24.75
,,
97.02811,28.68542,24.75
,,
98.02836,29.0092,24.6875
,,
99.02937,28.68542,24.625
,,
100.0296,28.68542,24.625
,,
101.0299,28.16008,24.5625
,,
102.0301,28.16008,24.8125
,,
103.0304,28.68542,25
,,
104.0306,29.0092,25
,,
105.0309,28.36163,25
,,
106.0311,28.88741,25
,,
107.0314,28.68542,25
,,
108.0316,28.88741,24.9375
,,
109.0319,28.68542,25
,,
110.0321,28.68542,25.125
,,
111.0324,28.68542,25.1875
,,
112.0326,28.68542,25.25
,,
113.0329,28.88741,25.3125
,,
114.0331,28.36163,25.375
,,
115.0334,28.68542,25.125
,,
116.0336,28.68542,24.8125
,,
117.0339,28.68542,24.75
,,
118.0342,28.36163,24.6875
,,
119.0352,29.0092,24.625
,,
120.0354,29.0092,24.625
,,
121.0357,28.68542,24.625
,,
122.0359,28.68542,24.5625
,,
123.0362,28.88741,24.875
,,
124.0364,28.68542,24.875
,,
125.0367,28.68542,24.875
,,
126.0369,29.0092,24.75
,,
127.0372,29.0092,24.8125
,,
128.0374,29.0092,24.875
,,
129.0377,28.48365,24.75
,,
130.0379,28.68542,24.8125
,,
131.0382,28.68542,24.6875
,,
132.0384,29.33298,24.8125
,,
133.0387,28.88741,24.875
,,
134.0389,29.33298,24.9375
,,
135.0392,28.68542,25
,,
136.0394,29.0092,24.875
,,
137.0397,29.0092,24.9375
,,
138.0399,28.68542,24.9375
,,
139.0413,29.0092,24.9375
,,
140.0416,29.0092,25
,,
141.0418,29.21141,24.9375
,,
142.0421,29.0092,25
,,
143.0423,29.0092,25.0625
,,
144.0426,29.0092,25.1875
,,
145.0428,28.68542,25.25
,,
146.0431,29.0092,25.125
,,
147.0433,29.33298,25
,,
148.0436,29.0092,25
,,
149.0438,29.0092,25.0625
,,
150.0441,29.0092,25
,,
151.0443,29.0092,25.0625
,,
152.0446,29.0092,25
,,
153.0448,28.68542,25.125
,,
154.0451,29.33298,25.375
,,
155.0453,29.0092,25.375
,,
156.0456,29.0092,25.4375
,,
157.0458,29.0092,25.5
,,
158.0461,29.0092,25.5
,,
159.0463,29.0092,25.625
,,
160.0473,29.33298,25.625
,,
161.0476,29.33298,25.5625
,,
162.0478,29.33298,25.6875
,,
163.0481,29.0092,25.6875
,,
164.0483,29.33298,25.6875
,,
165.0486,29.0092,25.75
,,
166.0488,29.33298,25.8125
,,
167.0491,29.65677,25.8125
,,
168.0493,29.53541,25.75
,,
169.0496,29.53541,25.6875
,,
170.0498,29.65677,25.6875
,,
171.0501,29.0092,25.6875
,,
172.0503,28.80722,25.9375
,,
173.0506,29.0092,25.9375
,,
174.0508,29.0092,25.875
,,
175.0511,29.33298,25.8125
,,
176.0513,29.33298,25.75
,,
177.0516,29.33298,25.6875
,,
178.0518,29.33298,25.625
,,
179.0528,29.33298,25.5625
,,
180.0531,29.33298,25.625
,,
181.0533,29.33298,25.5625
,,
182.0536,28.80722,25.5625
,,
183.0538,29.13079,25.5
,,
184.0541,29.0092,25.5
,,
185.0543,29.0092,25.5625
,,
186.0546,28.68542,25.5625
,,
187.0548,29.0092,25.5625
,,
188.0551,29.0092,25.5
,,
189.0553,29.0092,25.5
,,
190.0556,29.65677,25.375
,,
191.0558,29.0092,25.25
,,
192.0561,29.65677,25.3125
,,
193.0563,29.85941,25.25
,,
194.0566,29.33298,25.25
,,
195.0568,29.33298,25.25
,,
196.0571,29.33298,25.25
,,
197.0573,29.13079,25.1875
,,
198.0576,29.33298,25.125
,,
199.0586,29.33298,25.1875
,,
200.0588,29.33298,25.125
,,
201.0591,29.13079,25.1875
,,
202.0593,29.33298,25.1875
,,
203.0596,29.33298,25.25
,,
204.0598,29.33298,25.1875
,,
205.0601,29.0092,25.25
,,
206.0603,29.65677,25.25
,,
207.0606,29.0092,25.4375
,,
208.0608,29.33298,25.5625
,,
209.0611,29.0092,25.625
,,
210.0613,29.33298,25.5
,,
211.0616,29.33298,25.5625
,,
212.0618,29.65677,25.5625
,,
213.0621,29.13079,25.625
,,
214.0623,29.33298,25.625
,,
215.0625,29.33298,25.625
,,
216.0628,29.53541,25.6875
,,
217.0631,29.33298,25.75
,,
218.0633,29.0092,25.6875
,,
219.0643,29.65677,25.6875
,,
220.0645,29.65677,25.625
,,
221.0648,29.98055,25.625
,,
222.0651,29.65677,25.5
,,
223.0653,29.33298,25.4375
,,
224.0656,29.65677,25.5
,,
225.0658,29.33298,25.4375
,,
226.0661,29.33298,25.375
,,
227.0663,29.65677,25.4375
,,
228.0666,29.33298,25.4375
,,
229.0668,29.33298,25.4375
,,
230.0671,29.85941,25.5
,,
231.0673,29.33298,25.5625
,,
232.0676,29.65677,25.4375
,,
233.0678,29.98055,25.3125
,,
234.0681,29.33298,25.25
,,
235.0683,29.0092,25.3125
,,
236.0686,29.53541,25.3125
,,
237.0688,29.33298,25.3125
,,
238.0691,29.33298,25.375
,,
239.0701,29.33298,25.1875
,,
240.0703,29.33298,25.125
,,
241.0706,29.0092,25.1875
,,
242.0708,29.0092,25.25
,,
243.0711,29.33298,25.25
,,
244.0713,29.33298,25.25
,,
245.0716,29.0092,25.3125
,,
246.0719,29.33298,25.25
,,
247.0721,29.33298,25.3125
,,
248.0724,29.13079,25.375
,,
249.0726,29.0092,25.375
,,
250.0729,28.80722,25.375
,,
251.0731,29.33298,25.1875
,,
252.0734,29.33298,25.1875
,,
253.0736,29.33298,25.125
,,
254.0739,29.53541,25.0625
,,
255.0741,29.33298,25.0625
,,
256.0744,29.33298,25.25
,,
257.0746,29.0092,25.1875
,,
258.0756,29.0092,25.3125
,,
259.0759,29.33298,25.5
,,
260.0761,28.68542,25.75
,,
261.0764,29.33298,25.6875
,,
262.0766,29.33298,25.6875
,,
263.0769,29.65677,25.75
,,
264.0771,29.65677,25.75
,,
265.0774,29.98055,25.75
,,
266.0776,29.33298,25.75
,,
267.0779,29.13079,25.6875
,,
268.0781,29.33298,25.625
,,
269.0784,29.65677,25.5625
,,
270.0786,29.98055,25.5
,,
271.0788,29.53541,25.5
,,
272.0791,29.13079,25.5625
,,
273.0794,29.0092,25.5625
,,
274.0796,29.65677,25.5625
,,
275.0799,29.65677,25.5625
,,
276.0801,29.45436,25.5625
,,
277.0803,29.65677,25.4375
,,
278.0814,29.33298,25.5
,,
279.0816,29.33298,25.5
,,
280.0819,29.65677,25.375
,,
281.0821,29.65677,25.3125
,,
282.0824,29.33298,25.25
,,
283.0826,29.65677,25.25
,,
284.0828,29.98055,25.25
,,
285.0831,29.33298,25.125
,,
286.0834,29.65677,25.125
,,
287.0836,29.33298,25.125
,,
288.0839,29.33298,25.25
,,
289.0841,29.0092,25.25
,,
290.0844,29.33298,25.1875
,,
291.0846,29.0092,25.1875
,,
292.0849,29.21141,25.25
,,
293.0851,29.33298,25.3125
,,
294.0854,29.33298,25.25
,,
295.0856,29.65677,25.1875
,,
296.0859,29.53541,25.25
,,
297.0861,29.65677,25.1875
,,
298.0871,29.65677,25.1875
,,
299.0874,29.65677,25.25
,,
300.0877,29.33298,25.25
,,
301.0879,29.77793,25.375
,,
302.0881,29.65677,25.3125
,,
303.0884,29.65677,25.3125
,,
304.0886,29.65677,25.25
,,
305.0889,29.65677,25.25
,,
306.0891,29.98055,25.25
,,
307.0894,29.77793,25.1875
,,
308.0897,29.85941,25.1875
,,
309.0899,29.65677,25.1875
,,
310.0901,29.65677,25.1875
,,
311.0904,29.98055,25.1875
,,
312.0907,29.45436,25.1875
,,
313.0909,29.33298,25.25
,,
314.0911,29.98055,25.1875
,,
315.0914,29.77793,25.25
,,
316.0917,30.18341,25.1875
,,
317.0919,29.98055,25.1875
,,
318.0929,29.98055,25.1875
,,
319.0932,30.30433,25.3125
,,
320.0934,29.65677,25.25
,,
321.0937,29.65677,25.1875
,,
322.0939,29.45436,25.1875
,,
323.0942,29.65677,25.125
,,
324.0944,29.45436,25.1875
,,
325.0947,29.98055,25.125
,,
326.0949,29.65677,25.1875
,,
327.0952,29.98055,25.125
,,
328.0954,29.65677,25.0625
,,
329.0957,29.33298,25.0625
,,
330.0959,29.33298,25.0625
,,
331.0961,30.30433,25.0625
,,
332.0964,29.65677,25.0625
,,
333.0967,29.65677,24.9375
,,
334.0969,29.65677,25
,,
335.0972,29.65677,25.0625
,,
336.0974,29.65677,25
,,
337.0984,29.65677,25
,,
338.0986,29.98055,25.0625
,,
339.0989,30.18341,25.125
,,
340.0991,29.77793,25.125
,,
341.0994,29.65677,25.125
,,
342.0997,29.33298,25.125
,,
343.0999,30.18341,25.1875
,,
344.1001,29.65677,25.1875
,,
345.1004,29.98055,25.1875
,,
346.1007,29.98055,25.1875
,,
347.1009,29.98055,25.125
,,
348.1012,29.65677,25.0625
,,
349.1014,29.65677,25.0625
,,
350.1016,29.85941,25.125
,,
351.1019,29.65677,25.125
,,
352.1022,29.65677,25.1875
,,
353.1024,29.77793,25.25
,,
354.1027,29.77793,25.3125
,,
355.1029,29.65677,25.3125
,,
356.1039,29.98055,25.3125
,,
357.1042,29.98055,25.3125
,,
358.1044,29.45436,25.375
,,
359.1047,29.85941,25.375
,,
360.1049,30.30433,25.3125
,,
361.1052,29.98055,25.25
,,
362.1054,29.65677,25.1875
,,
363.1057,29.65677,25.25
,,
364.1059,29.33298,25.25
,,
365.1062,29.13079,25.1875
,,
366.1064,29.45436,25.1875
,,
367.1067,29.98055,25.25
,,
368.1069,29.45436,25
,,
369.1072,29.33298,24.6875
,,
370.1074,29.33298,24.5
,,
371.1076,28.68542,24.375
,,
372.108,29.0092,24.4375
,,
373.1082,28.68542,24.375
,,
374.1085,28.68542,24.375
,,
375.1087,28.88741,24.3125
,,
376.1097,29.0092,24.3125
,,
377.11,28.68542,24.25
,,
378.1102,29.0092,24.3125
,,
379.1105,28.68542,24.3125
,,
380.1107,28.68542,24.25
,,
381.111,28.36163,24.25
,,
382.1113,28.68542,24.25
,,
383.1115,28.68542,24.25
,,
384.1117,28.48365,24.25
,,
385.112,28.36163,24.25
,,
386.1123,28.68542,24.25
,,
387.1125,28.68542,24.25
,,
388.1127,28.68542,24.1875
,,
389.113,28.36163,24.25
,,
390.1133,28.68542,24.25
,,
391.1135,28.48365,24.1875
,,
392.1137,29.0092,24.1875
,,
393.114,28.68542,24.1875
,,
394.1143,28.48365,24.125
,,
395.1145,28.68542,24.1875
,,
396.1155,28.36163,24.1875
,,
397.1158,28.48365,24.1875
,,
398.116,28.36163,24.125
,,
399.1162,29.0092,24.125
,,
400.1165,28.68542,24.125
,,
401.1168,28.88741,24.0625
,,
402.117,28.36163,24.0625
,,
403.1173,28.03785,24
,,
404.1175,28.36163,24
,,
405.1178,28.68542,24
,,
406.118,28.36163,24
,,
407.1182,28.16008,24
,,
408.1185,28.16008,24
,,
409.1187,28.36163,23.9375
,,
410.119,28.36163,24
,,
411.1193,27.71406,23.9375
,,
412.1195,28.36163,23.9375
,,
413.1198,28.36163,23.9375
,,
414.12,28.03785,23.9375
,,
415.1203,28.36163,23.9375
,,
416.1212,28.36163,23.875
,,
417.1215,28.36163,23.875
,,
418.1218,28.36163,23.9375
,,
419.122,28.23941,23.9375
,,
420.1222,28.03785,23.9375
,,
421.1225,28.36163,23.875
,,
422.1228,28.03785,23.875
,,
423.123,28.03785,23.9375
,,
424.1232,28.36163,24
,,
425.1235,28.03785,23.9375
,,
426.1238,28.16008,23.9375
,,
427.124,28.03785,23.9375
,,
428.1242,28.03785,23.9375
,,
429.1245,28.03785,23.9375
,,
430.1248,28.03785,23.9375
,,
431.125,28.03785,23.9375
,,
432.1253,28.36163,23.9375
,,
433.1255,28.03785,23.9375
,,
434.1258,28.03785,23.875
,,
435.126,28.03785,23.8125
,,
436.127,27.83651,23.8125
,,
437.1273,28.03785,23.875
,,
438.1275,28.03785,23.875
,,
439.1278,28.03785,23.875
,,
440.128,28.36163,23.8125
,,
441.1283,28.36163,23.875
,,
442.1285,28.36163,23.8125
,,
443.1288,28.36163,23.8125
,,
444.129,28.03785,23.8125
,,
445.1293,27.83651,23.8125
,,
446.1296,28.03785,23.8125
,,
447.1298,28.03785,23.8125
,,
448.13,28.03785,23.75
,,
449.1302,28.23941,23.75
,,
450.1305,27.83651,23.75
,,
451.1308,28.03785,23.75
,,
452.131,28.03785,23.75
,,
453.1312,27.71406,23.8125
,,
454.1315,28.03785,23.75
,,
455.1318,27.71406,23.75
,,
456.1328,27.71406,23.75
,,
457.133,28.23941,23.75
,,
458.1333,27.71406,23.75
,,
459.1335,28.03785,23.75
,,
460.1338,27.71406,23.75
,,
461.134,28.03785,23.75
,,
462.1343,27.71406,23.75
,,
463.1345,28.36163,23.75
,,
464.1348,27.71406,23.75
,,
465.135,27.71406,23.6875
,,
466.1353,27.39028,23.6875
,,
467.1355,27.71406,23.6875
,,
468.1358,28.03785,23.6875
,,
469.136,27.71406,23.625
,,
470.1363,27.71406,23.6875
,,
471.1365,27.71406,23.6875
,,
472.1368,28.03785,23.75
,,
473.137,28.03785,23.6875
,,
474.1373,27.71406,23.75
,,
475.1375,28.03785,23.6875
,,
476.1385,27.51294,23.6875
,,
477.1388,28.36163,23.6875
,,
478.1391,28.03785,23.6875
,,
479.1393,27.71406,23.6875
